COVID-19 School Indicators Update 2021-02-27 - Dripping Data
…
# Read in data
dat <- read_csv("../datasets/DOH_COVID20210227.csv")

## Parsed with column specification:
## cols(
##   County = col_character(),
##   Date = col_character(),
##   NewCases = col_double(),
##   NewPositiveTests = col_double(),
##   TotalTestEncounters = col_double()
## )

dat

## # A tibble: 1,806 x 5
##    County Date    NewCases NewPositiveTests TotalTestEncounters
##    <chr>  <chr>      <dbl>            <dbl>               <dbl>
##  1 Hawaii 2/15/20        0                0                   0
##  2 Hawaii 2/28/20        0                0                   0
##  3 Hawaii 3/2/20         0                0                   0
##  4 Hawaii 3/3/20         0                0                   1
##  5 Hawaii 3/6/20         0                0                   0
##  6 Hawaii 3/7/20         0                0                   0
##  7 Hawaii 3/8/20         0                0                   0
##  8 Hawaii 3/9/20         0                0                   0
##  9 Hawaii 3/10/20        0                0                   0
## 10 Hawaii 3/11/20        0                0                   0
## # … with 1,796 more rows
…
