King Tides Citizen Science Project
…
Then I wanted to put the points on the map. The dataset was in comma separated values format (albeit with this latin1 file encoding when I did this post first in Fedora). It was easy to load the dataset.

dat <- read.csv("../datasets/tides_20170526.csv", 
                # fileEncoding = "latin1", 
                colClasses = "character")
dat <- tbl_df(dat)

The file needed some cleaning for convenient use in the ggmap package.

dat

## # A tibble: 818 x 20
##                                                     Dataset.Name
##                                                            <chr>
##  1 Hawai'i and Pacific Islands King Tides Project (HI Sea Grant)
##  2 Hawai'i and Pacific Islands King Tides Project (HI Sea Grant)
##  3 Hawai'i and Pacific Islands King Tides Project (HI Sea Grant)
##  4 Hawai'i and Pacific Islands King Tides Project (HI Sea Grant)
##  5 Hawai'i and Pacific Islands King Tides Project (HI Sea Grant)
##  6 Hawai'i and Pacific Islands King Tides Project (HI Sea Grant)
##  7 Hawai'i and Pacific Islands King Tides Project (HI Sea Grant)
##  8 Hawai'i and Pacific Islands King Tides Project (HI Sea Grant)
##  9 Hawai'i and Pacific Islands King Tides Project (HI Sea Grant)
## 10 Hawai'i and Pacific Islands King Tides Project (HI Sea Grant)
## # ... with 808 more rows, and 19 more variables: Dataset.Owner <chr>,
## #   User <chr>, Submission.Latitude <chr>, Submission.Longitude <chr>,
## #   Date.Created <chr>, Record <chr>,
## #   Hawai.iSea.Grant.King.Tides.Photo.Database <chr>,
## #   Location..tap.arrow.to.input.exact.location....Latitude <chr>,
## #   Location..tap.arrow.to.input.exact.location....Longitude <chr>,
## #   Share.your.image. <chr>, Island.s. <chr>, Location.Description <chr>,
## #   Orientation..check.your.compass.. <chr>, Date <chr>, Time <chr>,
## #   Tell.us.something.about.your.photo. <chr>, Photographer.s.Name <chr>,
…
