Last Day Distance in GVRAT - Dripping Data
…
June Finishers

Who finished in June?

I found people whose total miles were over the race distance and then took the first run that was over the finish distance.

june_finishers <- gv_miles %>% 
  filter(miles_total > 684.34) %>%
  group_by(Bib) %>%
  arrange(miles_total) %>%
  slice(1)

june_finishers

## # A tibble: 515 x 4
## # Groups:   Bib [515]
##      Bib run_date   miles_day miles_total
##    <dbl> <date>         <dbl>       <dbl>
##  1     2 2020-06-09      19.2        701.
##  2     9 2020-06-08      25          702.
##  3    68 2020-06-25      10.4        686.
##  4    72 2020-06-20      13          693.
##  5    81 2020-06-22      40          718.
##  6    84 2020-06-17      14.4        690.
##  7    92 2020-06-16      18.9        686.
##  8   105 2020-06-01      27          698.
##  9   115 2020-06-26      12.5        694.
## 10   142 2020-06-17      10          685 
## # … with 505 more rows
…
June Finishers Mileage Excluding Last Day

Here’s the mean miles of people who finished in June (excluding their last day).

gv_miles %>% filter(Bib %in% june_finishers$Bib) %>%
  filter(run_date > ymd('2020-05-31')) %>%
  filter(miles_total < 684.34) %>%
  group_by(Bib) %>% 
  summarize(mean_june_miles = mean(miles_day))

## # A tibble: 512 x 2
##      Bib mean_june_miles
##    <dbl>           <dbl>
##  1     2            20.5
##  2     9            17.7
##  3    68            13.7
##  4    72            15.1
##  5    81            12.1
##  6    84            17.2
##  7    92            16.4
##  8   115            13.4
##  9   142            16.2
## 10   170            13.0
## # … with 502 more rows
…
