Mobility in Hawaii - Dripping Data
…
I calculated the rolling 7 day mean as before.

cases %>% filter(state == "Hawaii") %>%
  mutate(cases_yesterday = lag(cases)) %>%
  mutate(new_cases = cases - cases_yesterday) %>%
  mutate(rolling_mean_7d = rollmean(new_cases, 7, align = 'right', fill = NA))

## # A tibble: 185 x 8
##    date       state fips  cases deaths cases_yesterday new_cases rolling_mean_7d
##    <date>     <chr> <chr> <dbl>  <dbl>           <dbl>     <dbl>           <dbl>
##  1 2020-03-06 Hawa… 15        1      0              NA        NA          NA    
##  2 2020-03-07 Hawa… 15        1      0               1         0          NA    
##  3 2020-03-08 Hawa… 15        2      0               1         1          NA    
##  4 2020-03-09 Hawa… 15        2      0               2         0          NA    
##  5 2020-03-10 Hawa… 15        2      0               2         0          NA    
##  6 2020-03-11 Hawa… 15        2      0               2         0          NA    
##  7 2020-03-12 Hawa… 15        2      0               2         0          NA    
##  8 2020-03-13 Hawa… 15        2      0               2         0           0.143
##  9 2020-03-14 Hawa… 15        4      0               2         2           0.429
## 10 2020-03-15 Hawa… 15        7      0               4         3           0.714
## # … with 175 more rows
…
