Turkey Data from 2017: A Bigger Bird
…
## Accessing worksheet titled '2016'.

## Parsed with column specification:
## cols(
##   Year = col_integer(),
##   Time = col_time(format = ""),
##   Minutes = col_integer(),
##   Bird_temp = col_integer(),
##   Oven_temp = col_integer(),
##   Weight = col_integer()
## )

turkey

## # A tibble: 44 x 6
##     Year     Time Minutes Bird_temp Oven_temp Weight
##    <int>   <time>   <int>     <int>     <int>  <int>
##  1  2016 01:35:00       0        49       500     14
##  2  2016 01:42:00       7        47       500     14
##  3  2016 01:47:00      12        50       500     14
##  4  2016 01:53:00      18        52       500     14
##  5  2016 01:59:00      24        55       500     14
##  6  2016 02:03:00      28        58       500     14
##  7  2016 02:08:00      33        63       350     14
##  8  2016 02:12:00      37        67       350     14
##  9  2016 02:16:00      41        72       350     14
## 10  2016 02:34:00      59        95       350     14
## # ... with 34 more rows
…
