Pidgey Evolution: Effects on Combat Power and Hit Points (Updated) - Dripping Data
…
   Posted on January 8, 2017

     |  Michael Ching

I was evolving some Pokemon in Pokemon Go and wondered how much the Pokemon’s attributes change after evolution. The attributes of interest were combat power (CP) and hit points (HP). I focused my analysis from Pidgeys because I had the most data points for this species.

I collected data from a couple of days’ evolution, available for viewing here. Both times I was using a Lucky Egg.

x <- read.csv("../datasets/evolution2.csv")
x <- tbl_df(x)
pidgeys <- filter(x, pokemon == "Pidgey")
pidgeys

## # A tibble: 55 × 7
##    pokemon CP_pre HP_pre kg_pre CP_post HP_post kg_post
##     <fctr>  <int>  <int>  <dbl>   <int>   <int>   <dbl>
## 1   Pidgey    270     NA     NA     533      NA      NA
## 2   Pidgey    267     NA     NA     515      NA      NA
## 3   Pidgey    259     NA     NA     526      NA      NA
## 4   Pidgey    212     NA     NA     413      NA      NA
## 5   Pidgey    209     43   2.20     403      66   36.70
## 6   Pidgey    203     41   1.18     395      64   19.75
## 7   Pidgey    201     43   1.70     392      66   28.38
## 8   Pidgey    198     41   2.26     396      65   37.72
## 9   Pidgey    191     NA     NA     370      NA      NA
## 10  Pidgey    163     42   1.08     322      63   18.07
## # ... with 45 more rows
…
