Cross Country Results - Dripping Data
…
Combined Boys

As a hypothetical, I calculated the team scores with the two divisions combined.

dc1 %>% filter(!is.na(place_team)) %>% 
  filter(gender == "m") %>%
  group_by(school) %>%
  top_n(5, -runtime_seconds) %>%
  summarize(team_score = sum(place_team)) %>%
  arrange(team_score)

## # A tibble: 21 x 2
##    school                 team_score
##    <fct>                       <dbl>
##  1 Punahou                        56
##  2 Maui High                      85
##  3 Hawaii Baptist Academy        138
##  4 Seabury Hall                  141
##  5 Kalani High School            197
##  6 Kamehameha-Kapalama           210
##  7 Waiakea                       244
##  8 Radford High School           248
##  9 Island School                 251
## 10 Pearl City High School        293
## # … with 11 more rows
…
HBA was able to hold off Seabury hall in the division 2 race.

Combined Girls

dc1 %>% filter(!is.na(place_team), gender == "f") %>%
  group_by(school) %>%
  top_n(5, -runtime_seconds) %>%
  summarize(team_score = sum(place_team)) %>%
  arrange(team_score)

## # A tibble: 21 x 2
##    school                 team_score
##    <fct>                       <dbl>
##  1 Punahou                        43
##  2 Hawaii Baptist Academy         68
##  3 Iolani                        131
##  4 Seabury Hall                  137
##  5 Hilo                          182
##  6 Kamehameha-Kapalama           194
##  7 Radford High School           206
##  8 Kalaheo High School           210
##  9 King Kekaulike                288
## 10 Kealakehe                     320
## # … with 11 more rows
…
The Division 2 race also showed some schools moving up based on total time including Hanalani and Hawaii Prep.

Combined Boys

dc1 %>% filter(!is.na(place_team)) %>% 
  filter(gender == "m") %>%
  group_by(school) %>%
  top_n(5, -runtime_seconds) %>%
  summarize(team_score = sum(place_team), team_time = sum(runtime_seconds)) %>%
  arrange(team_time)

## # A tibble: 21 x 3
##    school                 team_score team_time
##    <fct>                       <dbl>     <dbl>
##  1 Maui High                      85     5162.
##  2 Punahou                        56     5181.
##  3 Seabury Hall                  141     5357.
##  4 Hawaii Baptist Academy        138     5375.
##  5 Kalani High School            197     5461.
##  6 Kamehameha-Kapalama           210     5512.
##  7 Radford High School           248     5528.
##  8 Island School                 251     5538.
##  9 Waiakea                       244     5539.
## 10 Hanalani                      330     5592.
## # … with 11 more rows
…
The Division 2 race was exactly the same as the team score based places.

Combined Girls

dc1 %>% filter(!is.na(place_team)) %>% 
  filter(gender == "f") %>%
  group_by(school) %>%
  top_n(5, -runtime_seconds) %>%
  summarize(team_score = sum(place_team), team_time = sum(runtime_seconds)) %>%
  arrange(team_time)

## # A tibble: 21 x 3
##    school                 team_score team_time
##    <fct>                       <dbl>     <dbl>
##  1 Punahou                        43     6112.
##  2 Hawaii Baptist Academy         68     6179.
##  3 Iolani                        131     6370.
##  4 Seabury Hall                  137     6389.
##  5 Hilo                          182     6559.
##  6 Kalaheo High School           210     6584.
##  7 Radford High School           206     6591.
##  8 Kamehameha-Kapalama           194     6619.
##  9 King Kekaulike                288     6774.
## 10 Kealakehe                     320     6896.
## # … with 11 more rows
…
