Text Analysis of Security Now: tf-idf
…
episode_words <- sn_text %>%
  unnest_tokens(word, linetext) %>%
#  anti_join(custom_stop_words, by = "word") %>% 
  count(episode, word, sort = TRUE) %>%
  ungroup()

total_words <- episode_words %>% 
  group_by(episode) %>% 
  summarize(total = sum(n))

episode_words <- left_join(episode_words, total_words, by = "episode")

episode_words

## # A tibble: 9,101 x 4
##    episode  word     n total
##      <int> <chr> <int> <int>
##  1     403   the   624 14736
##  2     401   the   529 15367
##  3     402   the   488 13008
##  4     401   and   423 15367
##  5     402   and   398 13008
##  6     403   and   395 14736
##  7     400   the   381 11366
##  8     403    to   370 14736
##  9     401     a   356 15367
## 10     401     i   354 15367
## # ... with 9,091 more rows

It was not surprising to see that common stop words like “the” accounted for most of the words.

I then calcuated the term frequency (frequency of a word as a percentage of the total number of words in the episode) and sorted by the absolute count.

freq_by_rank <- episode_words %>% 
  group_by(episode) %>% 
  mutate(rank = row_number(), 
         `term frequency` = n/total)

freq_by_rank

## # A tibble: 9,101 x 6
## # Groups:   episode [4]
##    episode  word     n total  rank `term frequency`
##      <int> <chr> <int> <int> <int>            <dbl>
##  1     403   the   624 14736     1       0.04234528
##  2     401   the   529 15367     1       0.03442442
##  3     402   the   488 13008     1       0.03751538
##  4     401   and   423 15367     2       0.02752652
##  5     402   and   398 13008     2       0.03059656
##  6     403   and   395 14736     2       0.02680510
##  7     400   the   381 11366     1       0.03352103
##  8     403    to   370 14736     3       0.02510858
##  9     401     a   356 15367     3       0.02316653
## 10     401     i   354 15367     4       0.02303638
## # ... with 9,091 more rows
…
The inverse document frequency is a rough rule of thumb that can be used to look at what words are important to a specific document compared to the whole corpus of documents. Idf identifies words that are not evenly distributed across the documents.

It is defined as the log of the number of documents divided by the number of documents containing the term. As a term becomes less frequent, the ratio can increase to the number of total documents. As it becomes more frequent, the ratio can decrease to a minimum of 1 (whose natural log is 0).

\[
idf(term) = ln({n_{documents} \over n_{documents \space containing \space term}})
\] When we multiply idf by term frequency, the result weights the idf for how often the word is seen in that particular document.

The tidytext package contains an bind_tf_idf function that makes it easy to calculate.

episode_words <- episode_words %>%
  bind_tf_idf(word, episode, n)
episode_words

## # A tibble: 9,101 x 7
##    episode  word     n total         tf   idf tf_idf
##      <int> <chr> <int> <int>      <dbl> <dbl>  <dbl>
##  1     403   the   624 14736 0.04234528     0      0
##  2     401   the   529 15367 0.03442442     0      0
##  3     402   the   488 13008 0.03751538     0      0
##  4     401   and   423 15367 0.02752652     0      0
##  5     402   and   398 13008 0.03059656     0      0
##  6     403   and   395 14736 0.02680510     0      0
##  7     400   the   381 11366 0.03352103     0      0
##  8     403    to   370 14736 0.02510858     0      0
##  9     401     a   356 15367 0.02316653     0      0
## 10     401     i   354 15367 0.02303638     0      0
## # ... with 9,091 more rows

I arranged the output by descending tf_idf to see what are the words that were different between episodes.

episode_words %>%
  select(-total) %>%
  arrange(desc(tf_idf))

## # A tibble: 9,101 x 6
##    episode       word     n           tf       idf      tf_idf
##      <int>      <chr> <int>        <dbl>     <dbl>       <dbl>
##  1     402     secret    46 0.0035362854 0.6931472 0.002451166
##  2     400       java    37 0.0032553229 0.6931472 0.002256418
##  3     400     minder    16 0.0014077072 1.3862944 0.001951497
##  4     402 bittorrent    33 0.0025369004 0.6931472 0.001758445
##  5     402     folder    16 0.0012300123 1.3862944 0.001705159
##  6     403     quinto    16 0.0010857763 1.3862944 0.001505206
##  7     403    quantum    15 0.0010179153 1.3862944 0.001411130
##  8     401    spheres    14 0.0009110431 1.3862944 0.001262974
##  9     400     applet    10 0.0008798170 1.3862944 0.001219685
## 10     400       clip    10 0.0008798170 1.3862944 0.001219685
## # ... with 9,091 more rows
…
episode_words <- left_join(episode_words, total_words, by = "episode")

episode_words %>% 
  bind_tf_idf(word, episode, n) %>%
  filter(tf_idf>0, n>15) %>%
  group_by(word) %>% 
  arrange(desc(tf_idf)) %>%
  top_n(1) %>%
  ungroup() %>% 
  arrange(desc(tf_idf)) %>%
  select(episode, word, n, tf_idf)

## Selecting by tf_idf

## # A tibble: 657 x 4
##    episode    word     n     tf_idf
##      <int>   <chr> <int>      <dbl>
##  1     463      fr   103 0.02151263
##  2     404 brokers    40 0.01546787
##  3     431  radius    54 0.01416449
##  4     404    iyaz    55 0.01228141
##  5     497     lee    65 0.01186939
##  6     497     pat    63 0.01150418
##  7     457   brett   101 0.01087039
##  8     404 bluekai    28 0.01082751
##  9     423     tom   114 0.01066308
## 10     490  enigma    57 0.01019011
## # ... with 647 more rows
…
