Hawaii High School Football All-Stars
…
Looking at the data there’s one year that’s an outlier (and one NA observation). The 1975 list is odd in that there are 12 defensive linemen and 7 linebackers chosen for the team. I’d guess that means they published first and second team players in this list, but it’s not clear who would have been first team and who second team.

x %>% filter(year == 1975)

## # A tibble: 54 x 7
##     year position first   last     team        poy   paper
##    <int> <fct>    <chr>   <chr>    <chr>       <chr> <fct>
##  1  1975 coach    Cal     Chai     Kamehameha  <NA>  HA   
##  2  1975 E        Casey   Kunitomo Kamehameha  <NA>  HA   
##  3  1975 E        Jim     Gesser   Kaiser      <NA>  HA   
##  4  1975 E        Ben     Apuna    Waipahu     <NA>  HA   
##  5  1975 E        Derek   Yamada   Iolani      <NA>  HA   
##  6  1975 E        Aaron   Lorenzo  Kamehameha  <NA>  HA   
##  7  1975 E        Charles Pico     St. Anthony <NA>  HA   
##  8  1975 E        David   Corbelli Hilo        <NA>  HA   
##  9  1975 T        Dayle   Turner   Kamehameha  <NA>  HA   
## 10  1975 T        Robert  Hema     Waianae     <NA>  HA   
## # ... with 44 more rows
…
## [1] 28

x <- x[-which(is.na(x$year)),]

Which School Has the Most All Stars

For a first pass I looked at the raw number of times each school was listed. This list included duplicates, for example when Mark Tuinei was selected as an all star by both the Star Bulletin and the Advertiser in 1977.

# school with most players (not deduplicated)
x %>% group_by(team) %>% 
  summarize(nplayers = n()) %>%   
  arrange(desc(nplayers))

## # A tibble: 45 x 2
##    team        nplayers
##    <chr>          <int>
##  1 Saint Louis      422
##  2 Kahuku           278
##  3 Kamehameha       174
##  4 Waianae          149
##  5 Punahou          133
##  6 Farrington       119
##  7 Leilehua          93
##  8 Iolani            89
##  9 Pac-Five          63
## 10 Castle            47
## # ... with 35 more rows

After accounting for the duplicated players, Saint Louis had the most first team players, followed by Kahuku. The third place team (Kamehameha), had fewer than half the number that Saint Louis had.

x %>% mutate(name = paste(first, last)) %>% 
  group_by(year) %>%
  distinct(name, .keep_all = T) %>%   
  group_by(team) %>%
  summarize(nplayers = n()) %>% 
  arrange(desc(nplayers))

## # A tibble: 45 x 2
##    team        nplayers
##    <chr>          <int>
##  1 Saint Louis      281
##  2 Kahuku           197
##  3 Kamehameha       129
##  4 Punahou          108
##  5 Waianae          104
##  6 Farrington        89
##  7 Iolani            71
##  8 Leilehua          69
##  9 Pac-Five          46
## 10 Mililani          41
## # ... with 35 more rows
…
