Finisher Characteristics and Hawaii Update - Dripping Data
…
rm(bv)
rm(gv)

Hawaii Runners

There are now 42 runners from Hawaii.

Hawaii <- gv_roster %>% filter(Home == "USA - Hawaii") %>% 
  mutate(place = dense_rank(-Miles)) %>%
  select(Bib, name, G, A, Miles, place)

Hawaii

## # A tibble: 42 x 6
##      Bib name             G         A Miles place
##    <dbl> <chr>            <fct> <dbl> <dbl> <int>
##  1  9385 Duane Zitta      M        39  398.     1
##  2 11868 Sally Cravens    F        61  308.     2
##  3 17429 Aaron Reed       M        28  296.     3
##  4  6786 April Shrum      F        42  287      4
##  5 14940 G.M. Rumbaoa     F        45  284.     5
##  6  6906 Robert Davidson  M        37  273      6
##  7  7202 Chris Robinson   M        39  244.     7
##  8 16629 michael hee      M        60  243.     8
##  9 16019 Kana Yamamoto    F        45  236.     9
## 10 13815 Andrew Borrebach M        29  229     10
## # … with 32 more rows
…
The Michaels

I could do the same thing for my name “Michael”.

Michael <- gv_roster %>% filter(grepl("Michael", name)) %>% 
  mutate(place = dense_rank(-Miles)) %>%
  select(Bib, name, G, A, Miles, place)

Michael

## # A tibble: 220 x 6
##      Bib name               G         A Miles place
##    <dbl> <chr>              <fct> <dbl> <dbl> <int>
##  1    54 Michael Maddock JR M        51  540.     1
##  2  1219 Michael O'Rourke   M        44  489.     2
##  3  2690 Michael Scandrett  M        39  422.     3
##  4  4027 Gary Michael       M        65  417.     4
##  5   258 Michael Eriks      M        36  388.     5
##  6  8543 Michael Miller     M        49  386.     6
##  7 11678 Michael Small      M        49  376.     7
##  8  5506 Michael Atcheson   M        50  372.     8
##  9 10555 Michael Wells      M        32  366.     9
## 10 13445 Michael Gampp      M        51  337.    10
## # … with 210 more rows
…
