Coronavirus Positive Tests in Hawaii - Dripping Data
…
timestamp() # Data pull time

## ##------ Sun Apr 26 16:46:26 2020 ------##

covid$Date <- mdy(covid$Date)

covid %>% select(Date, test_total = `Total Tests`, test_daily = `Daily Tests`,
                 test_total_neg = `Negative Tests`, test_total_pos = `Positive Tests`,
                 test_total_inconcl = `Inconcl Tests`) %>%
  mutate(daily_positive = test_total_pos - lag(test_total_pos),
         daily_negative = test_total_neg - lag(test_total_neg),
         daily_inconcl = test_total_inconcl - lag(test_total_inconcl)) %>%
  select(Date, test_daily, daily_positive, daily_negative, daily_inconcl)

## # A tibble: 57 x 5
##    Date       test_daily daily_positive daily_negative daily_inconcl
##    <date>          <dbl>          <dbl>          <dbl>         <dbl>
##  1 2020-03-01         NA             NA             NA            NA
##  2 2020-03-02         NA             NA             NA            NA
##  3 2020-03-03         NA             NA             NA            NA
##  4 2020-03-04         NA             NA             NA            NA
##  5 2020-03-05         NA             NA             NA            NA
##  6 2020-03-06         NA             NA             NA            NA
##  7 2020-03-07         NA             NA             NA            NA
##  8 2020-03-08         NA             NA             NA            NA
##  9 2020-03-09         NA             NA             NA            NA
## 10 2020-03-10         NA             NA             NA            NA
## # … with 47 more rows
…
