Iolani Football 1945-2019 - Dripping Data
…
I looked at the single season winning percentage and sorted the top seasons.

The top season was the 1968 team, which went 11-0-1 and won the Interscholastic League of Honolulu title. That team featured current Iolani teacher Chucky Nakoa!

win_convert <- function(result) {
  ifelse(result == "W", 1, 0)
}

iolani %>% filter(result != "") %>% 
  mutate(gameyear = year(date), win = win_convert(result)) %>%
  group_by(gameyear) %>%
  summarize(win_percent = mean(win)) %>% arrange(-win_percent)

## # A tibble: 75 x 2
##    gameyear win_percent
##       <dbl>       <dbl>
##  1     1968       0.917
##  2     1950       0.889
##  3     2009       0.857
##  4     1976       0.818
##  5     2008       0.786
##  6     2001       0.778
##  7     1992       0.769
##  8     2019       0.769
##  9     1965       0.75 
## 10     1986       0.75 
## # … with 65 more rows
…
Offensive Category Leaders

There are only so many things that can be done with single game offensive yards leaders, but we can at least calculate the top 10 historical performances for each type (passing, rushing, receiving).

Top Passing Yard Games

Tai-John Mizutani had the top 4 passing yard games in Iolani history, 3 of which came during the 2017 season. He is currently on the football team at Central Washington University.

iolani %>% select(pass_leader, pass_yds, date, opponent, result, Iolani_score, opp_score) %>%
  arrange(-pass_yds)

## # A tibble: 859 x 7
##    pass_leader  pass_yds date       opponent  result Iolani_score opp_score
##    <fct>           <int> <date>     <fct>     <fct>         <int>     <int>
##  1 Tai-John Mi…      503 2017-08-26 Kaimuki   W                57        34
##  2 Tai-John Mi…      485 2015-10-16 Kamehame… L                24        39
##  3 Tai-John Mi…      430 2017-09-29 St. Fran… W                45        29
##  4 Tai-John Mi…      426 2017-09-16 Pac-Five  W                55        20
##  5 Reece Foy         391 2011-09-09 Punahou   L                18        38
##  6 Kiran Kepoo       386 2004-08-21 Farringt… W                24         7
##  7 Kiran Kepoo       381 2004-10-01 Pac-Five  W                38        13
##  8 Ryan Dung         369 2006-11-24 King Kek… L                37        38
##  9 Austin Jim …      367 2013-10-04 Pac-Five  W                31        19
## 10 Reece Foy         364 2012-08-18 at Waipa… W                35        34
## # … with 849 more rows

Top Rushing Yard Games

Joe Igber has 6 of the top 10 on this list. He went on to play college football at California and rushed for over 3000 yards in college.

iolani %>% select(rush_leader, rush_yds, date, opponent, result, Iolani_score, opp_score) %>%
  arrange(-rush_yds)

## # A tibble: 859 x 7
##    rush_leader   rush_yds date       opponent result Iolani_score opp_score
##    <fct>            <int> <date>     <fct>    <fct>         <int>     <int>
##  1 Joe Igber          352 1998-10-23 Pac-Five W                45        35
##  2 Joe Igber          312 1998-09-19 Pac-Five W                40        29
##  3 Joe Igber          278 1998-11-13 Damien   W                31         7
##  4 Joe Igber          262 1997-10-04 Pac-Five W                45         7
##  5 Raynold Stow…      261 2002-09-20 Pac-Five W                35        27
##  6 Joe Igber          251 1998-10-09 Damien   W                49        32
##  7 Joe Igber          240 1997-11-15 Damien   W                17        12
##  8 Raynold Stow…      237 2002-11-01 Damien   W                23        12
##  9 Kyle Chang         228 1992-10-23 Damien   W                14         0
## 10 Willie Keola       228 1972-11-24 Punahou  W                34        25
## # … with 849 more rows

Top Receiving Yard Games

Unlike the passing and rushing yard leaders, there are a lot of different names on this list. Carter Kamana finished his high school senior season this year. Keoni-Kordell Makekau plays Division 1 football at Navy. Raul Pacheco won the national championship at Montana and had the most receptions in Montana history until 2019.

iolani %>% select(receive_leader, receive_yds, date, opponent, result, Iolani_score, opp_score) %>%
  arrange(-receive_yds)

## # A tibble: 859 x 7
##    receive_leader receive_yds date       opponent result Iolani_score
##    <fct>                <int> <date>     <fct>    <fct>         <int>
##  1 Carter Kamana          222 2017-09-16 Pac-Five W                55
##  2 Keoni-Kordell…         220 2013-10-04 Pac-Five W                31
##  3 Raul Pacheco           219 1992-11-14 Saint L… L                14
##  4 Jonah Miyazawa         193 2017-11-03 Lahaina… L                27
##  5 Micah Kalama           189 2004-10-01 Pac-Five W                38
##  6 Raul Pacheco           179 1993-09-11 Saint L… L                 7
##  7 Tanner Nishio…         175 2012-09-20 at Kame… L                34
##  8 Keoni-Kordell…         169 2015-10-16 Kameham… L                24
##  9 Nicholas Kenn…         169 2015-10-02 at Puna… L                23
## 10 Lionel Fujioka         166 2006-08-25 at Mili… L                23
## # … with 849 more rows, and 1 more variable: opp_score <int>
…
