Bean Sprout Respiration Update - Dripping Data
…
Wide data must come long. Last time I did this there were gather and spread functions. Those have been deprecated for the use of pivot_longer. For whatever reason, it did not like the way I specified the variables, but the result was as expected anyway.

resp <- resp %>% pivot_longer(
  cols = 6:10,
  names_to = "minutes",
  values_to = "mL")

resp$minutes <- recode(resp$minutes, "min0" = 0, "min5" = 5, "min10" = 10,
       "min15" = 15, "min20" = 20)

resp

## # A tibble: 1,370 x 7
##     Year Teacher  Period Table Beansprout minutes    mL
##    <int> <fct>    <fct>  <fct> <fct>        <dbl> <dbl>
##  1  2021 Bilenchi 1      A     young            0   0  
##  2  2021 Bilenchi 1      A     young            5  15  
##  3  2021 Bilenchi 1      A     young           10  30  
##  4  2021 Bilenchi 1      A     young           15  44.5
##  5  2021 Bilenchi 1      A     young           20  69.5
##  6  2021 Bilenchi 1      B     young            0   0  
##  7  2021 Bilenchi 1      B     young            5 130  
##  8  2021 Bilenchi 1      B     young           10 240  
##  9  2021 Bilenchi 1      B     young           15 410  
## 10  2021 Bilenchi 1      B     young           20 490  
## # … with 1,360 more rows

Here’s the data for drawing the plot, subgrouped by teacher, bean sprout, and time. More error messages that don’t affect what I wanted.

resp_plot <- 
  resp %>% group_by(Teacher, Beansprout, minutes) %>%
  summarize(mean_mL = mean(mL, na.rm = T), sd_mL = sd(mL, na.rm = T))

## `summarise()` regrouping output by 'Teacher', 'Beansprout' (override with `.groups` argument)

resp_plot

## # A tibble: 60 x 5
## # Groups:   Teacher, Beansprout [12]
##    Teacher  Beansprout minutes mean_mL sd_mL
##    <fct>    <fct>        <dbl>   <dbl> <dbl>
##  1 Bilenchi young            0     0     0  
##  2 Bilenchi young            5    75.8  57.1
##  3 Bilenchi young           10   141.   99.0
##  4 Bilenchi young           15   219.  156. 
##  5 Bilenchi young           20   278.  194. 
##  6 Bilenchi mature           0     0     0  
##  7 Bilenchi mature           5    25.2  14.0
##  8 Bilenchi mature          10    58.1  27.7
##  9 Bilenchi mature          15    90.2  38.5
## 10 Bilenchi mature          20   122.   49.8
## # … with 50 more rows
…
