Weight Training Data
…
library(ggplot2)
library(lubridate)

## 
## Attaching package: 'lubridate'

## The following object is masked from 'package:base':
## 
##     date

dat <- read.csv("../datasets/strong.csv")
dat <- tbl_df(dat)
dat

## # A tibble: 4,334 x 9
##    Date    Workout.Name Exercise.Name  Set.Order    lb  Reps    mi Seconds
##    <fct>   <fct>        <fct>              <int> <dbl> <int> <dbl>   <int>
##  1 2016-0… Basic 2      Bench Press (…         0    65    10     0       0
##  2 2016-0… Basic 2      Bench Press (…         1    80    10     0       0
##  3 2016-0… Basic 2      Lat Pulldown …         0    80    10     0       0
##  4 2016-0… Basic 2      Lat Pulldown …         1    80    10     0       0
##  5 2016-0… Basic 2      Shoulder Pres…         0    35    10     0       0
##  6 2016-0… Basic 2      Shoulder Pres…         1    35    10     0       0
##  7 2016-0… Basic 2      Bicep Curl (M…         0    25    10     0       0
##  8 2016-0… Basic 2      Bicep Curl (M…         1    30    10     0       0
##  9 2016-0… Basic 2      Tricep Extens…         0    45    10     0       0
## 10 2016-0… Basic 2      Tricep Extens…         1    45    10     0       0
## # ... with 4,324 more rows, and 1 more variable: Notes <fct>
…
month(dat$Date[1])

## [1] 3

What exercises did I do

dat %>% group_by(Exercise.Name) %>% summarize(sets = n()) %>%
  arrange(desc(sets))

## # A tibble: 36 x 2
##    Exercise.Name                     sets
##    <fct>                            <int>
##  1 Lat Pulldown (Custom)              502
##  2 Triceps (cable)                    428
##  3 Bench Press (Machine)              341
##  4 Bicep Curl (Dumbbell)              321
##  5 Shoulder Press (Machine)           297
##  6 Seated Military Press (Dumbbell)   286
##  7 Low Row cable                      267
##  8 Crunch                             266
##  9 Seated Row (Custom)                240
## 10 Bicep Curl (Machine)               228
## # ... with 26 more rows
…
