Dirichlet Rational Approximation - Dripping Data
…
This cyclic distribution of the remainders is reminiscent of a rational number, but not quite. I think the author says that the golden ratio is a much more irrational irrational number than pi because it does not have this cyclical nature to its remainders (see below).

Calculating a Rational Approximation

The idea behind deriving the rational approximation is: if you have n x pi remainder about equal to b and m x pi remainder also about equal to b, then the difference between the two (m pi - n pi) or (m-n) x pi is going to be pretty close to an integer. And (m-n) x pi / (m - n) is going to be the rational approximation of pi.

What’s the first pair of numbers we get in pi multiple remainders?

boxes %>% group_by(box_no) %>% 
  summarize(n = n())

## `summarise()` ungrouping output (override with `.groups` argument)

## # A tibble: 141 x 2
##    box_no     n
##     <dbl> <int>
##  1      9     8
##  2     18     8
##  3     27     9
##  4     36     9
##  5     44     1
##  6     45     8
##  7     53     6
##  8     54     3
##  9     62     9
## 10     71     9
## # … with 131 more rows

It’s box number 9.

boxes %>% group_by(box_no) %>% 
  summarize(n = n()) %>% filter(n > 8)

## `summarise()` ungrouping output (override with `.groups` argument)

## # A tibble: 72 x 2
##    box_no     n
##     <dbl> <int>
##  1     27     9
##  2     36     9
##  3     62     9
##  4     71     9
##  5     80     9
##  6     89     9
##  7     98     9
##  8    124     9
##  9    133     9
## 10    142     9
## # … with 62 more rows
…
Ok, let’s try a different irrational number, maybe the golden ratio…

The golden ratio is approximated by (1 + square root of 5) / 2.

phi <- (1 + sqrt(5))/2
boxes <- tibble(n_multiple = 1:n)
boxes <- boxes %>% mutate(box_no = 
                            multiple_remainder(n_multiple, phi, log10(n)))

boxes %>% group_by(box_no) %>% 
  summarize(n = n()) %>% arrange(-n)

## `summarise()` ungrouping output (override with `.groups` argument)

## # A tibble: 891 x 2
##    box_no     n
##     <dbl> <int>
##  1      6     2
##  2     11     2
##  3     14     2
##  4     16     2
##  5     19     2
##  6     21     2
##  7     24     2
##  8     29     2
##  9     34     2
## 10     83     2
## # … with 881 more rows
…
## [1] 1.618033

That’s the ratio given in the book! 987/610! It turns out that 610 and 987 are two Fibonacci sequence numbers anyway and actually the last two before 1000. What if we did this for 10000? Would it be the two greatest Fibonacci numbers that are less than 10000? I suspect yes.

n <- 10000
boxes <- tibble(n_multiple = 1:n)
boxes <- boxes %>% mutate(box_no = 
                            multiple_remainder(n_multiple, phi, log10(n)))

boxes %>% group_by(box_no) %>% 
  summarize(n = n()) %>% arrange(-n)

## `summarise()` ungrouping output (override with `.groups` argument)

## # A tibble: 8,901 x 2
##    box_no     n
##     <dbl> <int>
##  1      3     2
##  2     15     2
##  3     22     2
##  4     34     2
##  5     46     2
##  6     65     2
##  7     68     2
##  8     77     2
##  9     87     2
## 10     96     2
## # … with 8,891 more rows
…
## [1] 1.618034

I think we could do this for any irrational number. How about e?

n <- 1000
boxes <- tibble(n_multiple = 1:n)
boxes <- boxes %>% mutate(box_no = 
                            multiple_remainder(n_multiple, exp(1), log10(n)))

boxes %>% group_by(box_no) %>% 
  summarize(n = n()) %>% arrange(-n)

## `summarise()` ungrouping output (override with `.groups` argument)

## # A tibble: 973 x 2
##    box_no     n
##     <dbl> <int>
##  1     13     2
##  2     24     2
##  3     26     2
##  4     28     2
##  5     35     2
##  6     37     2
##  7     39     2
##  8     41     2
##  9     46     2
## 10     48     2
## # … with 963 more rows
…
Oh well, maybe an exercise for another day…

One more before I give up… let’s do square root of 2.

n <- 1000
boxes <- tibble(n_multiple = 1:n)
boxes <- boxes %>% mutate(box_no = 
                            multiple_remainder(n_multiple, sqrt(2), log10(n)))

boxes %>% group_by(box_no) %>% 
  summarize(n = n()) %>% arrange(-n)

## `summarise()` ungrouping output (override with `.groups` argument)

## # A tibble: 912 x 2
##    box_no     n
##     <dbl> <int>
##  1     48     2
##  2     53     2
##  3     56     2
##  4     61     2
##  5     72     2
##  6    117     2
##  7    119     2
##  8    122     2
##  9    125     2
## 10    127     2
## # … with 902 more rows
…
