How Late Can My Patient Be - Dripping Data
…
I loaded the data.

x <- read.csv("../datasets/lateness.csv", colClasses = "character")
x <- tbl_df(x)

Here are the first 10 rows of the dataset.

x

## # A tibble: 169 × 8
##        Date Appointment_time Arrival_time Outcome Appointment_type Clinic
##       <chr>            <chr>        <chr>   <chr>            <chr>  <chr>
## 1  5/2/2016             9:00         8:38    kept          consult    MAP
## 2  5/2/2016            10:30        10:27    kept          consult    MAP
## 3  5/2/2016            13:00        12:55    kept          consult    MAP
## 4  5/2/2016            14:30        14:18    kept          consult    MAP
## 5  5/3/2016             8:30         8:51    kept          consult    MLW
## 6  5/3/2016            10:00        10:06    kept          consult    MLW
## 7  5/3/2016            13:00        12:56    kept          consult    MLW
## 8  5/3/2016            14:30        14:24    kept          consult    MLW
## 9  5/4/2016             9:00         8:55    kept          consult    MAP
## 10 5/4/2016            10:30        17:00  noshow          consult    MAP
## # ... with 159 more rows, and 2 more variables: Early <chr>,
## #   Minutes_difference <chr>
…
