Runkeeper Data
…
library(ggplot2)
library(lubridate)

## 
## Attaching package: 'lubridate'

## The following object is masked from 'package:base':
## 
##     date

dat <- tbl_df(read.csv("../datasets/cardioActivities.csv"))
dat

## # A tibble: 89 x 14
##    Activity.Id  Date  Type  Route.Name Distance..mi. Duration Average.Pace
##    <fct>        <fct> <fct> <lgl>              <dbl> <fct>    <fct>       
##  1 4ff0c9dd-97… 2018… Runn… NA                 10    1:32:29  9:15        
##  2 dc011367-b4… 2018… Runn… NA                  5.97 54:27    9:08        
##  3 0e7d5b74-7a… 2018… Rowi… NA                  3.82 30:08    7:53        
##  4 870ef074-54… 2018… Runn… NA                 11.4  1:50:01  9:40        
##  5 3afb0d49-06… 2018… Cycl… NA                  8.61 36:10    4:12        
##  6 77913c3d-92… 2018… Runn… NA                  5.02 47:38    9:30        
##  7 1450300b-c6… 2018… Runn… NA                  6.22 53:00    8:31        
##  8 39ca5e99-8f… 2018… Runn… NA                  0.88 8:58     10:10       
##  9 ce730a71-95… 2018… Runn… NA                  5.01 46:07    9:13        
## 10 5febf442-c3… 2018… Runn… NA                  4.01 36:46    9:10        
## # ... with 79 more rows, and 7 more variables: Average.Speed..mph. <dbl>,
## #   Calories.Burned <dbl>, Climb..ft. <int>,
## #   Average.Heart.Rate..bpm. <int>, Friend.s.Tagged <lgl>, Notes <fct>,
## #   GPX.File <fct>
…
