VEX Scores and Google Sheets - Dripping Data
…
## Parsed with column specification:
## cols(
##   Run = col_integer(),
##   Date = col_date(format = ""),
##   Points = col_integer(),
##   OJ = col_character(),
##   EL = col_character(),
##   OJ_1 = col_character(),
##   EL_1 = col_character()
## )

vex_scores

## # A tibble: 39 x 7
##      Run       Date Points    OJ    EL  OJ_1  EL_1
##    <int>     <date>  <int> <chr> <chr> <chr> <chr>
##  1     1 2017-11-12     47  <NA>  <NA>  <NA>  <NA>
##  2     2 2017-11-15     56  <NA>  <NA>  <NA>  <NA>
##  3     3 2017-11-15     60  <NA>  <NA>  <NA>  <NA>
##  4     4 2017-11-15     65  <NA>  <NA>  <NA>  <NA>
##  5     5 2017-11-15     67  <NA>  <NA>  <NA>  <NA>
##  6     6 2017-11-15     91  <NA>  <NA>  <NA>  <NA>
##  7     7 2017-11-19     60  <NA>  <NA>  <NA>  <NA>
##  8     8 2017-11-19     93  <NA>  <NA>  <NA>  <NA>
##  9     9 2017-11-19     88  <NA>  <NA>  <NA>  <NA>
## 10    10 2017-11-19     77  <NA>  <NA>  <NA>  <NA>
## # ... with 29 more rows
…
