Hundred Game Division Winners - Dripping Data
…
##   yearID lgID teamID divID Rank   G   W  L             name
## 1   1961   AL    NYA  <NA>    1 163 109 53 New York Yankees
## 2   1961   AL    DET  <NA>    2 163 101 61   Detroit Tigers

Another question is how often are there 100 game win teams in baseball?

First we can check how many times there are 100 win teams in a season.

teams %>% mutate(w100 = (W>=100)) %>% 
  group_by(yearID) %>% 
  summarize(n_teams = n(), w100teams = sum(w100)) %>%
  arrange(-w100teams)

## # A tibble: 150 × 3
##    yearID n_teams w100teams
##     <int>   <int>     <int>
##  1   2019      30         4
##  2   1942      16         3
##  3   1977      26         3
##  4   1998      30         3
##  5   2002      30         3
##  6   2003      30         3
##  7   2017      30         3
##  8   2018      30         3
##  9   1909      16         2
## 10   1910      16         2
## # … with 140 more rows
…
