Great Virtual Race across Tennessee First Look - Dripping Data
…
Runners by State and Country

I decided to look at where runners come from. Here’s the list sorted by most runners.

gv_roster %>% filter(Event == "GVRAT") %>%
  group_by(Home) %>%
  summarize(nrunners = n()) %>% 
  arrange(-nrunners)

## # A tibble: 142 x 2
##    Home               nrunners
##    <fct>                 <int>
##  1 USA - Tennessee        1157
##  2 USA - California        995
##  3 Canada -Ontario         959
##  4 USA - Texas             869
##  5 England                 847
##  6 USA - Virginia          792
##  7 USA - Ohio              685
##  8 USA - Illinois          682
##  9 USA - New York          652
## 10 USA - Pennsylvania      647
## # … with 132 more rows

Interesting but not surprising that the state of Tennessee had the most runners signed up. Certainly this is way higher per capita than California!

Runners from Hawaii

Here’s the runners from my home state of Hawaii:

gv_roster %>% filter(grepl("Hawaii", Home))

## # A tibble: 42 x 7
##      Bib name             Event G         A Home         Miles
##    <dbl> <chr>            <fct> <fct> <dbl> <fct>        <dbl>
##  1  9385 Duane Zitta      GVRAT M        39 USA - Hawaii  261.
##  2 11868 Sally Cravens    GVRAT F        61 USA - Hawaii  192.
##  3 17429 Aaron Reed       GVRAT M        28 USA - Hawaii  182.
##  4  6786 April Shrum      GVRAT F        42 USA - Hawaii  169.
##  5 16019 Kana Yamamoto    GVRAT F        45 USA - Hawaii  158.
##  6  6906 Robert Davidson  GVRAT M        37 USA - Hawaii  155.
##  7 16629 michael hee      GVRAT M        60 USA - Hawaii  154.
##  8 11636 Sean Thompson    GVRAT M        39 USA - Hawaii  150.
##  9 13815 Andrew Borrebach GVRAT M        29 USA - Hawaii  143.
## 10  7202 Chris Robinson   GVRAT M        39 USA - Hawaii  134.
## # … with 32 more rows
…
Hawaii is the 49th place USA location by median miles. It’s hard to tell from the boxplots but the difference in miles between Hawaii and Nebraska is over 20 miles, so it’s a pretty significant percent difference.

gv_roster %>% filter(Event == "GVRAT") %>%
  filter(grepl("USA", Home)) %>%
  group_by(Home) %>%
  summarize(medianMiles = median(Miles)) %>%
  arrange(-medianMiles)

## # A tibble: 53 x 2
##    Home                medianMiles
##    <fct>                     <dbl>
##  1 USA - Nebraska             118.
##  2 USA - West Virginia        117.
##  3 USA - APO                  112.
##  4 USA - Alabama              112.
##  5 USA - North Dakota         112.
##  6 USA - Colorado             112.
##  7 USA - New Mexico           111.
##  8 USA - Connecticut          109.
##  9 USA - Kentucky             108.
## 10 USA - Florida              108.
## # … with 43 more rows
…
