Coronavirus in Hawaii - Dripping Data
…
Here is the total nationwide cases as of 2020-04-04.

x <- covid %>% filter(date == max(date)) %>% select(cases)
sum(x$cases)

## [1] 310807

Total Cases by State

covid %>% filter(date == max(date)) %>%
  group_by(state) %>%
  summarize(total = sum(cases)) %>%
  arrange(-total)

## # A tibble: 55 x 2
##    state          total
##    <fct>          <dbl>
##  1 New York      114996
##  2 New Jersey     34124
##  3 Michigan       14225
##  4 California     13796
##  5 Louisiana      12492
##  6 Massachusetts  11736
##  7 Florida        11537
##  8 Illinois       10358
##  9 Pennsylvania   10110
## 10 Washington      6788
## # … with 45 more rows
…
Total Cases in Hawaii

In Hawaii, the number of cases has been growing steadily.

covid %>% filter(state == "Hawaii") %>%
  group_by(date) %>%
  summarize(total = sum(cases)) %>%
  arrange(-total)

## # A tibble: 30 x 2
##    date       total
##    <date>     <dbl>
##  1 2020-04-04   349
##  2 2020-04-03   317
##  3 2020-04-02   283
##  4 2020-04-01   256
##  5 2020-03-31   224
##  6 2020-03-30   199
##  7 2020-03-29   173
##  8 2020-03-28   150
##  9 2020-03-27   120
## 10 2020-03-26   106
## # … with 20 more rows
…
